<svg xmlns="http://www.w3.org/2000/svg" width="118" height="118" viewBox="0 0 118 118">
  <g id="Group_175748" data-name="Group 175748" transform="translate(-632 -279)">
    <circle id="Ellipse_7757" data-name="Ellipse 7757" cx="59" cy="59" r="59" transform="translate(632 279)" fill="#e95028" opacity="0.1"/>
    <g id="sms-notification_broken" data-name="sms-notification/broken" transform="translate(659.783 307.783)">
      <g id="vuesax_broken_sms-notification" data-name="vuesax/broken/sms-notification">
        <g id="sms-notification">
          <path id="Vector" d="M0,13.007C0,3.9,5.2,0,13.007,0h18.21" transform="translate(5.203 9.105)" fill="none" stroke="#e95028" stroke-linecap="round" stroke-linejoin="round" stroke-width="3"/>
          <path id="Vector-2" data-name="Vector" d="M52.029,0V13.007c0,9.105-5.2,13.007-13.007,13.007H13.007C5.2,26.014,0,22.112,0,13.007V6.452" transform="translate(5.203 27.315)" fill="none" stroke="#e95028" stroke-linecap="round" stroke-linejoin="round" stroke-width="3"/>
          <path id="Vector-3" data-name="Vector" d="M0,0,8.143,6.5a8.235,8.235,0,0,0,9.755,0l3.07-2.445" transform="translate(18.21 23.413)" fill="none" stroke="#e95028" stroke-linecap="round" stroke-linejoin="round" stroke-width="3"/>
          <path id="Vector-4" data-name="Vector" d="M13.007,6.5A6.5,6.5,0,1,1,6.5,0,6.5,6.5,0,0,1,13.007,6.5Z" transform="translate(44.224 7.804)" fill="none" stroke="#e95028" stroke-linecap="round" stroke-linejoin="round" stroke-width="3"/>
          <path id="Vector-5" data-name="Vector" d="M0,0H62.435V62.435H0Z" fill="none" opacity="0"/>
        </g>
      </g>
    </g>
  </g>
</svg>
