<svg id="eye_lock_broken" data-name="eye/lock/broken" xmlns="http://www.w3.org/2000/svg" width="48" height="48" viewBox="0 0 48 48">
  <g id="vuesax_broken_lock" data-name="vuesax/broken/lock">
    <g id="lock">
      <path id="Vector" d="M0,16V12C0,5.38,2,0,12,0S24,5.38,24,12v4" transform="translate(12 4)" fill="none" stroke="#e95028" stroke-linecap="round" stroke-linejoin="round" stroke-width="3"/>
      <path id="Vector-2" data-name="Vector" d="M0,5A5,5,0,1,0,5,0" transform="translate(19 27)" fill="none" stroke="#e95028" stroke-linecap="round" stroke-linejoin="round" stroke-width="3"/>
      <path id="Vector-3" data-name="Vector" d="M40,14V10C40,2,38,0,30,0H10C2,0,0,2,0,10v4c0,8,2,10,10,10H30c3.52,0,5.88-.38,7.42-1.5" transform="translate(4 20)" fill="none" stroke="#e95028" stroke-linecap="round" stroke-linejoin="round" stroke-width="3"/>
      <path id="Vector-4" data-name="Vector" d="M0,0H48V48H0Z" fill="none" opacity="0"/>
    </g>
  </g>
</svg>
