<svg id="arrow-left_linear" data-name="arrow-left/linear" xmlns="http://www.w3.org/2000/svg" width="19.408" height="19.408" viewBox="0 0 19.408 19.408">
  <g id="vuesax_linear_arrow-left" data-name="vuesax/linear/arrow-left">
    <g id="arrow-left">
      <path id="Vector" d="M4.909,0,0,4.909,4.909,9.817" transform="translate(2.83 4.795)" fill="none" stroke="#e95028" stroke-linecap="round" stroke-linejoin="round" stroke-width="1.5"/>
      <path id="Vector-2" data-name="Vector" d="M13.61,0H0" transform="translate(2.968 9.704)" fill="none" stroke="#e95028" stroke-linecap="round" stroke-linejoin="round" stroke-width="1.5"/>
      <path id="Vector-3" data-name="Vector" d="M0,0H19.408V19.408H0Z" transform="translate(19.408 19.408) rotate(180)" fill="none" opacity="0"/>
    </g>
  </g>
</svg>
