<svg id="minus-cirlce_linear" data-name="minus-cirlce/linear" xmlns="http://www.w3.org/2000/svg" width="21.999" height="21.999" viewBox="0 0 21.999 21.999">
  <g id="vuesax_linear_minus-cirlce" data-name="vuesax/linear/minus-cirlce">
    <g id="minus-cirlce">
      <path id="Vector" d="M9.166,18.333A9.166,9.166,0,1,0,0,9.166,9.193,9.193,0,0,0,9.166,18.333Z" transform="translate(1.76 1.833)" fill="none" stroke="#ea0449" stroke-linecap="round" stroke-linejoin="round" stroke-width="1.5"/>
      <path id="Vector-2" data-name="Vector" d="M0,0H7.333" transform="translate(7.26 11)" fill="none" stroke="#ea0449" stroke-linecap="round" stroke-linejoin="round" stroke-width="1.5"/>
      <path id="Vector-3" data-name="Vector" d="M0,0H22V22H0Z" fill="none" opacity="0"/>
    </g>
  </g>
</svg>
