<svg id="shopping-cart_broken" data-name="shopping-cart/broken" xmlns="http://www.w3.org/2000/svg" width="24" height="24" viewBox="0 0 24 24">
  <g id="vuesax_broken_shopping-cart" data-name="vuesax/broken/shopping-cart">
    <g id="shopping-cart">
      <path id="Vector" d="M.01,10.09A2.8,2.8,0,0,0,2.8,13.12H13.45a2.877,2.877,0,0,0,2.81-2.61l.54-7.5A2.773,2.773,0,0,0,13.99,0H1.08" transform="translate(4.74 3.88)" fill="none" stroke="#e95028" stroke-linecap="round" stroke-linejoin="round" stroke-width="1.5"/>
      <path id="Vector-2" data-name="Vector" d="M0,0H1.74A1.85,1.85,0,0,1,3.58,2l-.5,6.05" transform="translate(2 2)" fill="none" stroke="#e95028" stroke-linecap="round" stroke-linejoin="round" stroke-width="1.5"/>
      <path id="Vector-3" data-name="Vector" d="M2.5,1.25A1.25,1.25,0,1,1,1.25,0,1.25,1.25,0,0,1,2.5,1.25Z" transform="translate(15 19.5)" fill="none" stroke="#e95028" stroke-linecap="round" stroke-linejoin="round" stroke-width="1.5"/>
      <path id="Vector-4" data-name="Vector" d="M2.5,1.25A1.25,1.25,0,1,1,1.25,0,1.25,1.25,0,0,1,2.5,1.25Z" transform="translate(7 19.5)" fill="none" stroke="#e95028" stroke-linecap="round" stroke-linejoin="round" stroke-width="1.5"/>
      <path id="Vector-5" data-name="Vector" d="M0,0H12" transform="translate(9 8)" fill="none" stroke="#e95028" stroke-linecap="round" stroke-linejoin="round" stroke-width="1.5"/>
      <path id="Vector-6" data-name="Vector" d="M0,0H24V24H0Z" fill="none" opacity="0"/>
    </g>
  </g>
</svg>
