<svg xmlns="http://www.w3.org/2000/svg" width="39.619" height="39.619" viewBox="0 0 39.619 39.619">
  <g id="profile-circle_linear" data-name="profile-circle/linear" opacity="0.19">
    <g id="vuesax_linear_profile-circle" data-name="vuesax/linear/profile-circle">
      <g id="profile-circle">
        <path id="Vector" d="M5.613,10.813a1.589,1.589,0,0,0-.4,0,5.415,5.415,0,1,1,.4,0Z" transform="translate(14.395 10.284)" fill="none" stroke="#292d32" stroke-linecap="round" stroke-linejoin="round" stroke-width="1.5"/>
        <path id="Vector-2" data-name="Vector" d="M22.253,6.512a16.4,16.4,0,0,1-11.126,4.325A16.4,16.4,0,0,1,0,6.512,6.073,6.073,0,0,1,2.922,2.253c4.523-3,11.919-3,16.409,0A6.073,6.073,0,0,1,22.253,6.512Z" transform="translate(8.683 25.48)" fill="none" stroke="#292d32" stroke-linecap="round" stroke-linejoin="round" stroke-width="1.5"/>
        <path id="Vector-3" data-name="Vector" d="M33.016,16.508A16.508,16.508,0,1,1,16.508,0,16.508,16.508,0,0,1,33.016,16.508Z" transform="translate(3.302 3.302)" fill="none" stroke="#292d32" stroke-linecap="round" stroke-linejoin="round" stroke-width="1.5"/>
        <path id="Vector-4" data-name="Vector" d="M0,0H39.619V39.619H0Z" transform="translate(39.619 39.619) rotate(180)" fill="none" opacity="0"/>
      </g>
    </g>
  </g>
</svg>
